…
``` r
activity_chart <- activity_clean %>%
  group_by(Subject)%>%
  select(Day, Sedentary, Light, Moderate, Vigorous,`Very Vigorous`)  %>%
  pivot_longer(cols = c(Sedentary,Light, Moderate,Vigorous,`Very Vigorous`),
               names_to = "Activity",
               values_to = "Count")
activity_chart
```

    ## # A tibble: 70 × 4
    ## # Groups:   Subject [1]
    ##    Subject   Day Activity      Count
    ##      <int> <int> <chr>         <dbl>
    ##  1       9     2 Sedentary       752
    ##  2       9     2 Light           531
    ##  3       9     2 Moderate        157
    ##  4       9     2 Vigorous          0
    ##  5       9     2 Very Vigorous     0
    ##  6       9     3 Sedentary      1077
    ##  7       9     3 Light           295
    ##  8       9     3 Moderate         68
    ##  9       9     3 Vigorous          0
    ## 10       9     3 Very Vigorous     0
    ## # ℹ 60 more rows
…
