…
``` r
activity_chart <- activity_clean %>%
  group_by(Subject)%>%
  select(Day, Sedentary, Light, Moderate, Vigorous,`Very Vigorous`)  %>%
  pivot_longer(cols = c(Sedentary,Light, Moderate,Vigorous,`Very Vigorous`),
               names_to = "Activity",
               values_to = "Count")
activity_chart
```

    ## # A tibble: 350 × 4
    ## # Groups:   Subject [5]
    ##    Subject   Day Activity      Count
    ##      <int> <dbl> <chr>         <dbl>
    ##  1       3     2 Sedentary       227
    ##  2       3     2 Light           101
    ##  3       3     2 Moderate         21
    ##  4       3     2 Vigorous          0
    ##  5       3     2 Very Vigorous     0
    ##  6       3     3 Sedentary       762
    ##  7       3     3 Light           456
    ##  8       3     3 Moderate        222
    ##  9       3     3 Vigorous          0
    ## 10       3     3 Very Vigorous     0
    ## # ℹ 340 more rows
…
