…
``` r
activity_chart <- activity_clean %>%
  group_by(Participant.ID)%>%
  select(Stage,Day, Sedentary, Light, Moderate, Vigorous)  %>%
  pivot_longer(cols = c(Sedentary,Light, Moderate,Vigorous),
               names_to = "Activity",
               values_to = "Count")
activity_chart
```

    ## # A tibble: 1,180 × 5
    ## # Groups:   Participant.ID [24]
    ##    Participant.ID Stage     Day Activity  Count
    ##             <int> <chr>   <int> <chr>     <dbl>
    ##  1              2 Stage 3     2 Sedentary 558. 
    ##  2              2 Stage 3     2 Light     817. 
    ##  3              2 Stage 3     2 Moderate   77.2
    ##  4              2 Stage 3     2 Vigorous    2.5
    ##  5              2 Stage 3     3 Sedentary 348. 
    ##  6              2 Stage 3     3 Light     564. 
    ##  7              2 Stage 3     3 Moderate   44.5
    ##  8              2 Stage 3     3 Vigorous    9.5
    ##  9              2 Stage 3     4 Sedentary 438  
    ## 10              2 Stage 3     4 Light     697. 
    ## # ℹ 1,170 more rows
…
